# 3ds Max Wavefront OBJ Exporter v0.97b - (c)2007 guruware
# File Created: 04.02.2013 12:23:46

newmtl wire_154185229
	Ns 32
	d 1
	Tr 0
	Tf 1 1 1
	illum 2
	Ka 0.6039 0.7255 0.8980
	Kd 0.6039 0.7255 0.8980
	Ks 0.3500 0.3500 0.3500

newmtl Gotham_Skyline_Mat
	Ns 10.0000
	Ni 1.5000
	d 1.0000
	Tr 0.0000
	Tf 1.0000 1.0000 1.0000 
	illum 2
	Ka 0.5880 0.5880 0.5880
	Kd 0.5880 0.5880 0.5880
	Ks 0.0000 0.0000 0.0000
	Ke 0.0000 0.0000 0.0000
	map_Ka C:\models\PDLCIN_A1_Static\Texture2D\Gotham_Skyline_Tpage_D.tga
	map_Kd C:\models\PDLCIN_A1_Static\Texture2D\Gotham_Skyline_Tpage_D.tga
